// Jest Snapshot v1, https://goo.gl/fbAQLP

exports[`BadgeList should correctly with all props 1`] = `
<div
  class="AvatarList className"
>
  <p
    class="AvatarList__title"
  >
    title
  </p>
  <ul
    class="AvatarList__items is-stacked"
  >
    <li
      class="AvatarList__item AvatarList__item--stacked"
    >
      <div
        aria-label="Avatar image for: Domhnall Gleeson"
        class="Avatar Avatar--small"
        role="img"
        style="background-image: url(/img1.jpg); background-size: cover; background-position: center;"
      >
        <span
          class="Avatar__label--tooltip"
          role="contentinfo"
        >
          Domhnall Gleeson
           
          <span
            class="Avatar__sublabel"
          >
            Caleb Smith
          </span>
        </span>
      </div>
    </li>
    <li
      class="AvatarList__item AvatarList__item--stacked"
    >
      <div
        aria-label="Avatar image for: name"
        class="Avatar Avatar--small"
        role="img"
        style="background-image: url(/img2.jpg); background-size: cover; background-position: center;"
      >
        <span
          class="Avatar__label--tooltip"
          role="contentinfo"
        >
          name
           
          <span
            class="Avatar__sublabel"
          >
            char2
          </span>
        </span>
      </div>
    </li>
  </ul>
</div>
`;
