// Jest Snapshot v1, https://goo.gl/fbAQLP

exports[`FetchStatusUI should render correctly when it receives an error 1`] = `
<div
  class="FetchStatusUI__problem"
>
  <svg>
    mock-BrowserSvg-react-kawaii
  </svg>
  <p>
    Something went wrong, please try again later.
  </p>
</div>
`;

exports[`FetchStatusUI should render correctly when it receives no data 1`] = `
<div
  class="FetchStatusUI__problem"
>
  <svg>
    mock-GhostSvg-react-kawaii
  </svg>
  <p>
    No one's here, retry!
  </p>
</div>
`;

exports[`FetchStatusUI should render correctly when loading 1`] = `
<mock-spinner
  classname="Spinner"
/>
`;
