// Jest Snapshot v1, https://goo.gl/fbAQLP

exports[`ConditionalWrapper should not render children inside wrapper when wrap condition is falsy 1`] = `
<span>
  I could be a clickable link
</span>
`;

exports[`ConditionalWrapper should render children in wrapper when wrap condition is truthy 1`] = `
<a
  href="/link.html"
>
  <span>
    I could be a clickable link
  </span>
</a>
`;
