// Jest Snapshot v1, https://goo.gl/fbAQLP

exports[`BadgeList should correctly with all props 1`] = `
<ul
  class="BadgeList prop-classname"
>
  <li
    class="BadgeList__item"
  >
    <mock-badge
      ishighlight="true"
      isprimary="true"
      label="Akira Kurosawa"
    />
  </li>
  <li
    class="BadgeList__item"
  >
    <mock-badge
      iscapsule="true"
      ishighlight="true"
      label="Action"
    />
  </li>
  <li
    class="BadgeList__item"
  >
    <mock-badge
      label="3h27"
    />
  </li>
  <li
    class="BadgeList__item"
  >
    <mock-badge
      label="1954"
    />
  </li>
  <li
    class="BadgeList__item"
  >
    <mock-badge
      label="Japanese"
    />
  </li>
</ul>
`;
