// Jest Snapshot v1, https://goo.gl/fbAQLP

exports[`Movie should render correctly with props 1`] = `
<li
  class="Movie is-backdrop"
>
  <div
    aria-label="Movie card for: Force Majeure"
    class="Movie__wrapper"
    role="button"
  >
    <p
      class="Movie__title"
    >
      Force Majeure
      <span
        class="Movie__titleOriginal"
      >
        Turist
      </span>
    </p>
    <mock-responsive-image
      alt="Force Majeure"
      backdroppath="https://backdrop.jpg"
      displaymode="backdrop"
      posterpath="https://poster.jpg"
    />
  </div>
  <mock-movie-details
    movieid="278"
    showmodal="false"
  >
    278
    <h2>
      Force Majeure
    </h2>
    <p>
      While holidaying in the French Alps...
    </p>
  </mock-movie-details>
</li>
`;

exports[`Movie should render correctly without props 1`] = `
<li
  class="Movie"
>
  <div
    aria-label="Movie card for: undefined"
    class="Movie__wrapper"
    role="button"
  />
</li>
`;
