// Jest Snapshot v1, https://goo.gl/fbAQLP

exports[`ResponsiveImage should render a fallback error SVG when loading image fails 1`] = `
<div
  class="ResponsiveImage__wrapper"
>
  <svg>
    'mock-react-kawaii-File'
  </svg>
</div>
`;

exports[`ResponsiveImage should render correctly with props 1`] = `
<div
  class="ResponsiveImage__wrapper"
>
  <img
    alt="Image Alt text"
    class="ResponsiveImage"
    src="https://image.tmdb.org/t/p/w300/_mock_.jpg"
  />
</div>
`;

exports[`ResponsiveImage should render correctly without props 1`] = `
<div
  class="ResponsiveImage__wrapper"
>
  <img
    class="ResponsiveImage"
    src="https://image.tmdb.org/t/p/w300/_mock_.jpg"
  />
</div>
`;

exports[`ResponsiveImage should render the full srcset on top of the src when image becomes visible 1`] = `
<div
  class="ResponsiveImage__wrapper"
>
  <img
    alt="Image Alt text"
    class="ResponsiveImage is-onscreen"
    src="https://image.tmdb.org/t/p/w300/_mock_.jpg"
    srcset="https://image.tmdb.org/t/p/w300/_mock_.jpg 300w, https://image.tmdb.org/t/p/w780/_mock_.jpg 780w, https://image.tmdb.org/t/p/w1280/_mock_.jpg 1280w, https://image.tmdb.org/t/p/original/_mock_.jpg 3840w"
  />
</div>
`;
